Risky Risk Results
…
  # Done
  return(combos_summed)
}

As an example:

combos_sorted(nDice=3, nCompare=2)

## # A tibble: 21 × 4
##   `y_{(1)}` `y_{(2)}`     n   prob
##   <chr>     <chr>     <int>  <dbl>
## 1 6         6            16 0.0741
## 2 6         5            27 0.125 
## 3 6         4            21 0.0972
## 4 6         3            15 0.0694
## 5 6         2             9 0.0417
## # ℹ 16 more rows
…
