Surveillance Out of the Box - The #Zombie Experiment
…
#Read the tweet database
tw <- readRDS(file=paste0(filePath,"Tweets-Database-",safe_query,"-","2016-09-25",".RDS"))
options(width=300,tibble.width = Inf)
tw %>% select(created_at, retweet_count,screen_name,text,hashtags,query_at)

## # A tibble: 10,974 × 6
##             created_at retweet_count    screen_name                                                                                                                                          text  hashtags            query_at
##                 <dttm>         <int>          <chr>                                                                                                                                         <chr>    <list>              <dttm>
## 1  2016-09-25 10:26:28             0       Lovebian                                               The latest #Zombie Nation! https://t.co/8ZkOFSZH2v Thanks to @NJTVNews @MaxfireXSA @Xtopgun901X <chr [1]> 2016-09-25 10:30:44
## 2  2016-09-25 10:25:49             2  MilesssAwaaay RT @Shaaooun: I'm gonna turn to a zombie soon! xdxdxdxd #AlmostSurvived #204Days #ITried #Zombie #StuckInMyRoom #Haha\n\n#MediaDoomsDay #Kame <chr [7]> 2016-09-25 10:30:44
## 3  2016-09-25 10:21:10             6 catZzinthecity          RT @ZombieEventsUK: 7 reasons #TheGirlWithAllTheGifts is the best #zombie movie in years https://t.co/MB82ssxss2 via @MetroUK #Metro <chr [3]> 2016-09-25 10:30:44
## 4  2016-09-25 10:19:41             0  CoolStuff2Get                             Think Geek Zombie Plush Slippers https://t.co/0em920WCMh #Zombie #Slippers #MyFeetAreCold https://t.co/iCEkPBykCa <chr [3]> 2016-09-25 10:30:44
## 5  2016-09-25 10:19:41             4  TwitchersNews    RT @zOOkerx: Nur der frhe Vogel fngt den #zombie also schaut gemtlich rein bei @booty_pax! Now live #dayz on #twitch \n\nhttps://t.co/OIk6 <chr [3]> 2016-09-25 10:30:44
## 6  2016-09-25 10:17:45             0 ZombieExaminer     Washington mall shooting suspect Arcan Cetin was '#Zombie-like' during arrest - USA TODAY https://t.co/itoDXG3L8T https://t.co/q2mURi24DB <chr [1]> 2016-09-25 10:30:44
## 7  2016-09-25 10:17:44             4       SpawnRTs    RT @zOOkerx: Nur der frhe Vogel fngt den #zombie also schaut gemtlich rein bei @booty_pax! Now live #dayz on #twitch \n\nhttps://t.co/OIk6 <chr [3]> 2016-09-25 10:30:44
## 8  2016-09-25 10:17:23             0   BennyPrabowo                   bad miku - bad oni-chan... no mercy\n.\n.\n.\n.\n#left4dead #games #hatsunemiku #fps #zombie #witch https://t.co/YP0nRDFFj7 <chr [6]> 2016-09-25 10:30:44
## 9  2016-09-25 10:12:53            62   Nblackthorne  RT @PennilessScribe: He would end her pain, but he could no longer live in a world that demanded such sacrifice. #zombie #apocalypse\nhttps: <chr [2]> 2016-09-25 10:30:44
## 10 2016-09-25 10:06:46             0   mthvillaalva                                                             Pak ganern!!! Kakatapos ko lang kumain ng dugo! \n#Zombie https://t.co/Zyd0btVJH4 <chr [1]> 2016-09-25 10:30:44
## # ... with 10,964 more rows
…
